<svg xmlns="http://www.w3.org/2000/svg" viewBox="17382 2560 120 71.817" width="105px" height="76px">
	<path fill="transparent" stroke="rgba(128,128,128,1)" stroke-width="3px" stroke-linejoin="miter" stroke-linecap="round" stroke-miterlimit="4" shape-rendering="auto" id="Path_214" d="M 17386.72265625 2595.2685546875 L 17415.77734375 2624.322265625 L 17487.59375 2552.505615234375">
	</path>
</svg>