<svg xmlns="http://www.w3.org/2000/svg" class="Path_127" viewBox="3.601 8.677 66.153 58.918" width="66px" height="60px">
				<path fill="rgba(36,74,165,1)" id="Path_127" d="M 69.71952819824219 21.89385986328125 C 69.71952819824219 19.93770790100098 68.12837219238281 18.3465518951416 66.17221832275391 18.3465518951416 L 47.68857574462891 18.3465518951416 L 47.68857574462891 13.57593631744385 C 47.68857574462891 10.8748197555542 45.49075698852539 8.677000045776367 42.78963851928711 8.677000045776367 L 30.5665340423584 8.677000045776367 C 27.86541557312012 8.677000045776367 25.6675968170166 10.8748197555542 25.6675968170166 13.57593631744385 L 25.6675968170166 18.3465518951416 L 7.185377597808838 18.3465518951416 C 5.228512763977051 18.3465518951416 3.636643409729004 19.93699645996094 3.636643409729004 21.89029884338379 L 3.600999355316162 38.76425170898438 C 3.600286483764648 39.31175231933594 3.912529468536377 39.81147766113281 4.404419422149658 40.05029678344727 C 5.157224178314209 40.41528701782227 5.932127952575684 40.75248336791992 6.710597038269043 41.08682250976562 L 6.710597038269043 64.04738616943359 C 6.710597038269043 66.00282287597656 8.301753997802734 67.59468841552734 10.25790596008301 67.59468841552734 L 63.09684371948242 67.59468841552734 C 65.05300140380859 67.59468841552734 66.64414978027344 66.00353240966797 66.64414978027344 64.04738616943359 L 66.64414978027344 40.74322128295898 C 67.44187164306641 40.37466049194336 68.22747039794922 39.99326324462891 68.99310302734375 39.58977127075195 C 69.46217346191406 39.34239959716797 69.75518035888672 38.85550689697266 69.75374603271484 38.32582855224609 L 69.71952819824219 21.89385986328125 Z M 28.51913261413574 13.57593631744385 C 28.51913261413574 12.44672870635986 29.43804168701172 11.52853488922119 30.56653594970703 11.52853488922119 L 42.78963851928711 11.52853488922119 C 43.89960098266602 11.52853488922119 44.83704376220703 12.46597671508789 44.83704376220703 13.57593631744385 L 44.83704376220703 18.3465518951416 L 28.51913642883301 18.3465518951416 L 28.51913642883301 13.57593631744385 Z M 63.79332733154297 64.04738616943359 C 63.79332733154297 64.41807556152344 63.46825408935547 64.74315643310547 63.09756088256836 64.74315643310547 L 10.25861930847168 64.74315643310547 C 9.881503105163574 64.74315643310547 9.562845230102539 64.42449188232422 9.562845230102539 64.04738616943359 L 9.562845230102539 42.21817398071289 C 15.76921081542969 44.49726486206055 22.70342826843262 45.86457443237305 30.26498794555664 46.28375244140625 L 30.26498794555664 48.26200103759766 C 30.26498794555664 49.69632720947266 31.43197822570801 50.86331558227539 32.86629867553711 50.86331558227539 L 40.4905891418457 50.86331558227539 C 41.92419815063477 50.86331558227539 43.09047317504883 49.69561386108398 43.09047317504883 48.26200103759766 L 43.09047317504883 46.26236343383789 C 50.75040817260742 45.79684829711914 57.68605804443359 44.35254669189453 63.79261779785156 41.95726013183594 L 63.79261779785156 64.04738616943359 Z M 33.11652374267578 48.01177597045898 L 33.11652374267578 43.28107833862305 L 40.23965835571289 43.28107833862305 L 40.23965835571289 48.01177597045898 L 33.11652374267578 48.01177597045898 Z M 43.0911865234375 43.39513778686523 L 43.0911865234375 43.03299331665039 C 43.0911865234375 41.59724807739258 41.92490768432617 40.43025970458984 40.49129867553711 40.43025970458984 L 32.86629867553711 40.43025970458984 C 31.43197441101074 40.43025970458984 30.26498794555664 41.59796142578125 30.26498794555664 43.03299331665039 L 30.26498794555664 43.42579650878906 C 21.33398246765137 42.91394424438477 13.32758331298828 41.05260467529297 6.455387592315674 37.86602020263672 L 6.488893032073975 21.89385986328125 C 6.488893032073975 21.51674652099609 6.80826473236084 21.19808578491211 7.186093330383301 21.19808578491211 L 66.17293548583984 21.19808578491211 C 66.55005645751953 21.19808578491211 66.86871337890625 21.51603317260742 66.86871337890625 21.89599990844727 L 66.90150451660156 37.45895767211914 C 60.19397735595703 40.83802795410156 52.1861572265625 42.82341384887695 43.0911865234375 43.39513778686523 Z">
				</path>
			</svg>