<?xml version="1.0" encoding="utf-8"?>
<!-- Generator: Adobe Illustrator 24.0.3, SVG Export Plug-In . SVG Version: 6.00 Build 0)  -->
<svg version="1.1" id="Layer_1" xmlns="http://www.w3.org/2000/svg" xmlns:xlink="http://www.w3.org/1999/xlink" x="0px" y="0px"
	 viewBox="0 0 200 200" style="enable-background:new 0 0 200 200;" xml:space="preserve">
<style type="text/css">
	.st0{fill:#FFFFFF;}
</style>
<g>
	<g>
		<path class="st0" d="M141.1,85.6c-5.6-4.3-12.9-6.6-20.7-6.6c-4.7,0-9.3,0.9-13.4,2.5c-2-3.9-5.5-7.3-9.8-9.9
			c-5.1-3-11.2-4.5-17.6-4.5c-7.8,0-15.2,2.4-20.7,6.6C53.2,78.1,50,84,50,90.3c0,5.7,2.6,11.1,7.3,15.3l0.1,13.8
			c0,0.7,0.4,1.4,1,1.8c0.8,0.4,1.5,0.3,2,0l14.3-8c1.6,0.2,3.2,0.3,4.8,0.3c0,0,0,0,0,0c4.7,0,9.2-0.9,13.4-2.5
			c1.5,2.9,3.8,5.5,6.7,7.8c5.6,4.3,12.9,6.6,20.7,6.6c1.6,0,3.2-0.1,4.8-0.3l14.4,7.6c0.8,0.4,1.4,0.3,2-0.1c0.6-0.4,1-1,1-1.7
			l0.1-13.4c4.7-4.2,7.3-9.6,7.3-15.3C150,95.9,146.8,90,141.1,85.6z M79.6,109.4C79.6,109.4,79.6,109.4,79.6,109.4
			c-1.7,0-3.3-0.1-5-0.4c-0.6-0.1-1.1,0.1-1.6,0.4l-11.6,6.5l-0.1-11.3c0,0,0-0.1,0-0.1c0-0.6-0.3-1.1-0.7-1.5
			c-4.2-3.5-6.6-8.1-6.6-12.8c0-10.5,11.5-19.1,25.5-19.1c10.4,0,19.9,4.9,23.7,12c-1.3,0.7-2.5,1.5-3.7,2.4
			c-5.7,4.4-8.9,10.3-8.9,16.6c0,1.7,0.2,3.4,0.7,5C87.8,108.7,83.8,109.4,79.6,109.4z M139.3,115c-0.4,0.4-0.7,0.9-0.7,1.5
			c0,0,0,0.1,0,0.1l-0.1,10.9l-11.6-6.1c-0.4-0.3-1-0.5-1.5-0.4c-1.6,0.2-3.3,0.4-5,0.4c-11.5,0-21.3-5.8-24.5-13.6c0,0,0-0.1,0-0.1
			c-0.7-1.7-1-3.5-1-5.4c0-6.8,4.7-12.8,11.9-16.2c0,0,0,0,0,0c0.1,0,0.2-0.1,0.2-0.1c3.9-1.8,8.5-2.9,13.4-2.9
			c14.1,0,25.5,8.6,25.5,19.1C145.9,106.9,143.6,111.5,139.3,115z"/>
		<path class="st0" d="M132.4,95.3h-24c-1.1,0-2,0.9-2,2s0.9,2,2,2h24c1.1,0,2-0.9,2-2S133.5,95.3,132.4,95.3z"/>
		<path class="st0" d="M132.4,104.6h-24c-1.1,0-2,0.9-2,2c0,1.1,0.9,2,2,2h24c1.1,0,2-0.9,2-2S133.5,104.6,132.4,104.6z"/>
	</g>
	<g>
		<path class="st0" d="M141.1,85.6c-5.6-4.3-12.9-6.6-20.7-6.6c-4.7,0-9.3,0.9-13.4,2.5c-2-3.9-5.5-7.3-9.8-9.9
			c-5.1-3-11.2-4.5-17.6-4.5c-7.8,0-15.2,2.4-20.7,6.6C53.2,78.1,50,84,50,90.3c0,5.7,2.6,11.1,7.3,15.3l0.1,13.8
			c0,0.7,0.4,1.4,1,1.8c0.8,0.4,1.5,0.3,2,0l14.3-8c1.6,0.2,3.2,0.3,4.8,0.3c0,0,0,0,0,0c4.7,0,9.2-0.9,13.4-2.5
			c1.5,2.9,3.8,5.5,6.7,7.8c5.6,4.3,12.9,6.6,20.7,6.6c1.6,0,3.2-0.1,4.8-0.3l14.4,7.6c0.8,0.4,1.4,0.3,2-0.1c0.6-0.4,1-1,1-1.7
			l0.1-13.4c4.7-4.2,7.3-9.6,7.3-15.3C150,95.9,146.8,90,141.1,85.6z M79.6,109.4C79.6,109.4,79.6,109.4,79.6,109.4
			c-1.7,0-3.3-0.1-5-0.4c-0.6-0.1-1.1,0.1-1.6,0.4l-11.6,6.5l-0.1-11.3c0,0,0-0.1,0-0.1c0-0.6-0.3-1.1-0.7-1.5
			c-4.2-3.5-6.6-8.1-6.6-12.8c0-10.5,11.5-19.1,25.5-19.1c10.4,0,19.9,4.9,23.7,12c-1.3,0.7-2.5,1.5-3.7,2.4
			c-5.7,4.4-8.9,10.3-8.9,16.6c0,1.7,0.2,3.4,0.7,5C87.8,108.7,83.8,109.4,79.6,109.4z M139.3,115c-0.4,0.4-0.7,0.9-0.7,1.5
			c0,0,0,0.1,0,0.1l-0.1,10.9l-11.6-6.1c-0.4-0.3-1-0.5-1.5-0.4c-1.6,0.2-3.3,0.4-5,0.4c-11.5,0-21.3-5.8-24.5-13.6c0,0,0-0.1,0-0.1
			c-0.7-1.7-1-3.5-1-5.4c0-10.8,11.6-19.1,25.5-19.1s25.5,8.6,25.5,19.1C145.9,106.9,143.6,111.5,139.3,115z"/>
		<path class="st0" d="M132.4,95.3h-24c-1.1,0-2,0.9-2,2s0.9,2,2,2h24c1.1,0,2-0.9,2-2S133.5,95.3,132.4,95.3z"/>
		<path class="st0" d="M132.4,104.6h-24c-1.1,0-2,0.9-2,2c0,1.1,0.9,2,2,2h24c1.1,0,2-0.9,2-2S133.5,104.6,132.4,104.6z"/>
	</g>
</g>
</svg>
