<svg xmlns="http://www.w3.org/2000/svg" viewBox="0 0 12.444 14" width="14px" height="14px">
	<path fill="rgba(255,255,255,1)" stroke="rgba(36,74,165,1)" stroke-width="1px" stroke-linejoin="round" stroke-linecap="round" stroke-miterlimit="10" shape-rendering="auto" id="lineart" d="M 6.222222328186035 0 L 0 6.222222328186035 L 0 14 L 4.666666984558105 14 L 4.666666984558105 10.88888931274414 C 4.666666984558105 10.03022193908691 5.363555431365967 9.333333969116211 6.222222328186035 9.333333969116211 C 7.080889225006104 9.333333969116211 7.777777671813965 10.03022193908691 7.777777671813965 10.88888931274414 L 7.777777671813965 14 L 12.44444465637207 14 L 12.44444465637207 6.222222328186035 L 6.222222328186035 0 Z">
	</path>
</svg>