<svg xmlns="http://www.w3.org/2000/svg" class="Path_98" viewBox="18 133.3 93.946 48.433" width="94px" height="48px">
	<path fill="rgba(36,74,165,1)" id="Path_98" d="M 107.0675735473633 146.0977478027344 L 96.61392974853516 136.2760620117188 C 94.57118988037109 134.3568725585938 91.90280914306641 133.3000183105469 89.1002197265625 133.3000183105469 L 63.98708343505859 133.3000183105469 C 61.16001892089844 133.3000183105469 58.47467803955078 134.3726501464844 56.42582702636719 136.3204956054688 L 42.39334869384766 149.6617736816406 L 29.49790382385254 151.3587036132812 C 22.94301414489746 152.2214050292969 18 157.8577575683594 18 164.4692993164062 L 18 171.068603515625 C 18 172.1586303710938 18.88379859924316 173.042236328125 19.9736499786377 173.042236328125 L 27.21952247619629 173.042236328125 C 28.2318058013916 177.9955139160156 32.62298583984375 181.7334289550781 37.87092590332031 181.7334289550781 C 43.11887359619141 181.7334289550781 47.51004791259766 177.9955444335938 48.52233123779297 173.042236328125 L 82.03692626953125 173.042236328125 C 83.04920959472656 177.9955139160156 87.44036865234375 181.7334289550781 92.68832397460938 181.7334289550781 C 97.93625640869141 181.7334289550781 102.3274536132812 177.9955444335938 103.3397369384766 173.042236328125 L 109.9721832275391 173.042236328125 C 111.0620574951172 173.042236328125 111.9458389282227 172.1586303710938 111.9458389282227 171.068603515625 L 111.9458389282227 157.3746337890625 C 111.9458389282227 153.1207885742188 110.1677780151367 149.0104675292969 107.0675735473633 146.0977478027344 Z M 93.91119384765625 139.1528625488281 L 104.3646392822266 148.9745178222656 C 104.5987319946289 149.1946105957031 104.8199691772461 149.4259033203125 105.0335083007812 149.6633605957031 L 82.20822906494141 149.6633605957031 L 80.80061340332031 137.2472839355469 L 89.10024261474609 137.2472839355469 C 90.89487457275391 137.2472839355469 92.603271484375 137.924072265625 93.91119384765625 139.1528625488281 Z M 78.23567199707031 149.6633605957031 L 72.98259735107422 149.6633605957031 L 74.39040374755859 137.2472839355469 L 76.82826232910156 137.2472839355469 L 78.23567199707031 149.6633605957031 Z M 59.14591217041016 139.1812744140625 C 60.45759582519531 137.9341430664062 62.17684173583984 137.2472839355469 63.98708343505859 137.2472839355469 L 70.41764068603516 137.2472839355469 L 69.00983428955078 149.6633605957031 L 48.12069702148438 149.6633605957031 L 59.14591217041016 139.1812744140625 Z M 37.87112426757812 177.7861328125 C 34.05309295654297 177.7861328125 30.94715690612793 174.68017578125 30.94715690612793 170.8621215820312 C 30.94715690612793 167.0440979003906 34.05309295654297 163.9381713867188 37.87112426757812 163.9381713867188 C 41.68915557861328 163.9381713867188 44.79509735107422 167.0443115234375 44.79509735107422 170.8621215820312 C 44.79509735107422 174.6799926757812 41.68895721435547 177.7861328125 37.87112426757812 177.7861328125 Z M 92.68850708007812 177.7861328125 C 88.87049102783203 177.7861328125 85.76455688476562 174.68017578125 85.76455688476562 170.8621215820312 C 85.76455688476562 167.0440979003906 88.87049102783203 163.9381713867188 92.68850708007812 163.9381713867188 C 96.50635528564453 163.9381713867188 99.61228942871094 167.0443115234375 99.61228942871094 170.8621215820312 C 99.61228942871094 174.6799926757812 96.50614166259766 177.7861328125 92.68850708007812 177.7861328125 Z M 107.9985427856445 169.0949401855469 L 103.4137344360352 169.0949401855469 C 102.5668487548828 163.9383850097656 98.08113861083984 159.9910888671875 92.68850708007812 159.9910888671875 C 87.29592132568359 159.9910888671875 82.80999755859375 163.9383850097656 81.96311187744141 169.0949401855469 L 48.59634399414062 169.0949401855469 C 47.74944305419922 163.9383850097656 43.26353454589844 159.9910888671875 37.87092590332031 159.9910888671875 C 32.47831726074219 159.9910888671875 27.99239921569824 163.9383850097656 27.14550590515137 169.0949401855469 L 21.94730567932129 169.0949401855469 L 21.94730567932129 164.4692993164062 C 21.94730567932129 159.8314208984375 25.4148120880127 155.8775634765625 30.01302909851074 155.2724609375 L 43.04624176025391 153.557373046875 C 43.19091033935547 153.5910949707031 43.34090423583984 153.61083984375 43.49584197998047 153.61083984375 L 107.3588790893555 153.61083984375 C 107.7753143310547 154.8128051757812 107.9985427856445 156.084228515625 107.9985427856445 157.3747863769531 L 107.9985427856445 169.0949401855469 Z">
	</path>
</svg>