<?xml version="1.0" encoding="utf-8"?>
<!-- Generator: Adobe Illustrator 24.2.1, SVG Export Plug-In . SVG Version: 6.00 Build 0)  -->
<svg version="1.1" id="Layer_1" xmlns="http://www.w3.org/2000/svg" xmlns:xlink="http://www.w3.org/1999/xlink" x="0px" y="0px"
	 viewBox="0 0 512 512" style="enable-background:new 0 0 512 512;" xml:space="preserve">
<style type="text/css">
	.st0{fill:#CFDEE5;}
	.st1{fill:url(#SVGID_1_);}
	.st2{fill:#FFFFFF;}
	.st3{fill:url(#SVGID_2_);}
	.st4{fill:#383838;}
	.st5{fill:url(#SVGID_3_);}
</style>
<path class="st0" d="M324.5,512H187.5C84,512,0,428,0,324.5l0-136.9C0,84,84,0,187.5,0l136.9,0C428,0,512,84,512,187.5v136.9
	C512,428,428,512,324.5,512z"/>
<g>
	
		<linearGradient id="SVGID_1_" gradientUnits="userSpaceOnUse" x1="-869.665" y1="-636.4164" x2="-869.665" y2="-906.1908" gradientTransform="matrix(0 -1 1 0 1027.3036 -613.665)">
		<stop  offset="0" style="stop-color:#1D61A1"/>
		<stop  offset="1" style="stop-color:#7CC5D7"/>
	</linearGradient>
	<path class="st1" d="M323.5,53.7c37.2,0,67.4,30.2,67.4,67.4s-30.2,67.4-67.4,67.4S256,218.7,256,256c0,37.2,30.2,67.4,67.4,67.4
		s67.4,30.2,67.4,67.4c0,37.3-30.2,67.4-67.4,67.4S256,428.2,256,390.9c0-37.2-30.2-67.4-67.5-67.4c-37.2,0-67.4-30.2-67.4-67.4
		c0-37.3,30.2-67.5,67.4-67.5c37.3,0,67.5-30.2,67.5-67.4S286.2,53.7,323.5,53.7z"/>
	<path class="st2" d="M232.2,263h-64.7c1.2,5.3,3.9,9.5,8.3,12.6c4.3,3.1,9.7,4.6,16.2,4.6c4.4,0,8.4-0.7,11.8-2
		c3.4-1.3,6.6-3.4,9.6-6.3l13.2,14.3c-8.1,9.2-19.8,13.8-35.3,13.8c-9.6,0-18.2-1.9-25.6-5.6c-7.4-3.8-13.1-9-17.2-15.7
		c-4-6.7-6-14.2-6-22.7c0-8.4,2-15.9,6-22.6c4-6.7,9.4-12,16.4-15.7c6.9-3.8,14.7-5.6,23.3-5.6c8.4,0,15.9,1.8,22.7,5.4
		c6.8,3.6,12.1,8.8,16,15.5c3.9,6.7,5.8,14.5,5.8,23.4C232.7,256.6,232.5,258.9,232.2,263z M174.2,235.5c-3.8,3.2-6.1,7.5-7,13h42.1
		c-0.8-5.4-3.2-9.7-7-13c-3.8-3.2-8.5-4.8-14-4.8C182.7,230.7,178,232.3,174.2,235.5z"/>
</g>
</svg>

